{"businesses":[{"id":"ChIJgYqjUtZCXz4R-srTBS-LusM","name":"Benchmark MOFA Attestation, Certificate attestation Dubai, Degree Attestation UAE, Apostille UK, US, India, Canada, Australia","address":"Office No: 203, 2nd Floor Business Atrium Building - عود ميثاء - دبي - United Arab Emirates","phone":"052 888 4714","website":"https://onlineattestation.com/","email":"info@benchmarkmofaattesta.ae","location":{"lat":25.2441432,"lng":55.3119665},"rating":5,"reviewCount":3329,"category":"dependent visa","businessStatus":"OPERATIONAL","photoReference":"ATKogpc39_ZPyW_UBg_nwEiEHQ43V5hDDLmdlWwgWdPyRF_ahdB-TiIeD9pllC_JD6SlxwFUzDKpfnDD9GbO43hIs_zogTUn1sVYsfkvx7xfl58GHCtnQ-QBmpUBlvFOL6UVrkKHik_B1ZGCsDckyri1bkUs47XLcuJUfqQ7nHFoTVfRHHdR7abpmfugLxwkjhmJHlaoZM142Uvsuy95k5th9t4ArMw308-edKUd1mGXa0OeTCn-1f7giLFcN4Zp1Sm5zK-VndBj4pSQRCMlI6E5XVwPhHJV5j6aUjvfB10GPumFlbczRaPEwHScjqO4EQYAkN1L6Lfx-RTcshJ_gFOsMhEuRwbNgVi7hTbQZwfl_pP6LGFkjltuXjW3Hx-BwGNOnS0_Q6mzDJzvEzztgbzlHQiBD-xnn7iavk3M1SjemnKAEA","logoUrl":"https://dubai-business-images.s3.ap-south-1.amazonaws.com/businesses/ChIJgYqjUtZCXz4R-srTBS-LusM/logos/1752374822770-ebd4cd9c.jpg","logoBase64":null,"logoS3Url":"https://dubai-business-images.s3.ap-south-1.amazonaws.com/businesses/ChIJgYqjUtZCXz4R-srTBS-LusM/logos/1752374822770-ebd4cd9c.jpg","isOpen":0,"priceLevel":null,"hasTargetKeyword":1,"hours":{"monday":"Monday: 9:00 AM – 5:00 PM","tuesday":"Tuesday: 9:00 AM – 5:00 PM","wednesday":"Wednesday: 9:00 AM – 5:00 PM","thursday":"Thursday: 9:00 AM – 5:00 PM","friday":"Friday: 9:00 AM – 5:00 PM","saturday":"Saturday: 9:00 AM – 5:00 PM","sunday":"Sunday: 9:00 AM – 5:00 PM"},"photos":[{"id":1,"url":"https://dubai-business-images.s3.ap-south-1.amazonaws.com/businesses/ChIJgYqjUtZCXz4R-srTBS-LusM/photos/1752374822771-05098c3e.jpg","caption":"Business Logo/Main Photo","needsDownload":false,"source":"s3","s3Url":"https://dubai-business-images.s3.ap-south-1.amazonaws.com/businesses/ChIJgYqjUtZCXz4R-srTBS-LusM/photos/1752374822771-05098c3e.jpg","s3UploadedAt":"2025-07-13T02:47:04.445Z"},{"id":2,"url":"https://dubai-business-images.s3.ap-south-1.amazonaws.com/businesses/ChIJgYqjUtZCXz4R-srTBS-LusM/photos/1752374822772-611caa6a.jpg","caption":"Business Photo 2","needsDownload":false,"source":"s3","s3Url":"https://dubai-business-images.s3.ap-south-1.amazonaws.com/businesses/ChIJgYqjUtZCXz4R-srTBS-LusM/photos/1752374822772-611caa6a.jpg","s3UploadedAt":"2025-07-13T02:47:04.513Z"},{"id":3,"url":"https://maps.googleapis.com/maps/api/place/photo?photoreference=ATKogpfGtKkUkJBDghnwPs9SImYR4EFs57-PuweC-V9T1UGQ34k-QlyhP2FaBVDgZV8aTag4SSy6UP07A1Pa1PtMfs0crxEwSmPCuIK9rDJ5f2yXwvunNNhRqPEOv5qCvqjIFap-v0hplnD7UagP81GaKwbkq1fH3J5yGaNfLhWnL3rH6PP6YjpAx9sfMbNvU8Kyxjvz2B9aROVTnr1sDcQknMJpcKXoqgI9isiUkOv85vSloTfmlUp9yfI3QTG2u1pR4p0gwdEDlvCKB15byF9yK8Gl6kfBwwuqxz1rMV9Q4h_ey3T72tg6X_LuojV30ptpBBE8SLbtbLQE8zBWtrSmnJTqqi1lmjNZ1YpY9wElDAhZlPjQjdV_i8Gka0WEQiZcEErJNnHBW3IP5B2HFplyhTcl3gYqyxnFhbdPxS4BGPgBk2WJ&maxwidth=400&key=AIzaSyDtCuMfNlJVEO5OFbRKHzziy1k4-W-tcC8","caption":"Business Photo 3","needsDownload":true,"source":"api"},{"id":4,"url":"https://dubai-business-images.s3.ap-south-1.amazonaws.com/businesses/ChIJgYqjUtZCXz4R-srTBS-LusM/photos/1752374822773-a91f59ab.jpg","caption":"Business Photo 4","needsDownload":false,"source":"s3","s3Url":"https://dubai-business-images.s3.ap-south-1.amazonaws.com/businesses/ChIJgYqjUtZCXz4R-srTBS-LusM/photos/1752374822773-a91f59ab.jpg","s3UploadedAt":"2025-07-13T02:47:04.787Z"},{"id":5,"url":"https://dubai-business-images.s3.ap-south-1.amazonaws.com/businesses/ChIJgYqjUtZCXz4R-srTBS-LusM/photos/1752374822774-c2c2bdbf.jpg","caption":"Business Photo 5","needsDownload":false,"source":"s3","s3Url":"https://dubai-business-images.s3.ap-south-1.amazonaws.com/businesses/ChIJgYqjUtZCXz4R-srTBS-LusM/photos/1752374822774-c2c2bdbf.jpg","s3UploadedAt":"2025-07-13T02:47:04.544Z"},{"id":6,"url":"https://dubai-business-images.s3.ap-south-1.amazonaws.com/businesses/ChIJgYqjUtZCXz4R-srTBS-LusM/photos/1752374822774-6af6c811.jpg","caption":"Business Photo 6","needsDownload":false,"source":"s3","s3Url":"https://dubai-business-images.s3.ap-south-1.amazonaws.com/businesses/ChIJgYqjUtZCXz4R-srTBS-LusM/photos/1752374822774-6af6c811.jpg","s3UploadedAt":"2025-07-13T02:47:04.578Z"}],"reviews":[{"id":"google_review_Benchmark_MOFA_Attestation,_Certificate_attestation_Dubai,_Degree_Attestation_UAE,_Apostille_UK,_US,_India,_Canada,_Australia_1","authorName":"Ibrahim Umar","rating":5,"text":"I had a fantastic experience working with Swathi. She was extremely helpful, responsive, and professional throughout the entire process. I received all the necessary documents promptly and everything was handled smoothly. I’m truly grateful for her support and couldn't be more satisfied with the service. Highly recommend!","timeAgo":"in the last week","profilePhotoUrl":"https://lh3.googleusercontent.com/a-/ALV-UjWv5-GLNsxrgNpXqBWEh_B2zCOEMjLkLoWKe_Mp4GqjVLspYrky=s128-c0x00000000-cc-rp-mo"},{"id":"google_review_Benchmark_MOFA_Attestation,_Certificate_attestation_Dubai,_Degree_Attestation_UAE,_Apostille_UK,_US,_India,_Canada,_Australia_2","authorName":"SACHIN P","rating":5,"text":"I had an excellent experience with Benchmark Certificate Attestation. The process of attesting my Indian degree certificates was seamless and efficient, completing within the promised timeframe of 10 to 12 days.\n\nI would like to extend my gratitude to Sharmai, who provided outstanding service and guidance throughout the entire process. She was consistently available to address my questions and ensured that everything was managed flawlessly. I truly value the team's commitment and professionalism, and I highly recommend their services to anyone in need of reliable attestation.","timeAgo":"a month ago","profilePhotoUrl":"https://lh3.googleusercontent.com/a-/ALV-UjXIlH3enc6nJ69Wcx87FOSJ_kqowaO86ry16_-ythXPJMcLls1B=s128-c0x00000000-cc-rp-mo-ba3"},{"id":"google_review_Benchmark_MOFA_Attestation,_Certificate_attestation_Dubai,_Degree_Attestation_UAE,_Apostille_UK,_US,_India,_Canada,_Australia_3","authorName":"Franck Hui Lin","rating":5,"text":"Absolutely amazing service! The entire attestation process was incredibly smooth and efficient. From collecting my documents to sending them back, it took only 3 days! I was especially impressed with their quick response time and convenient communication throughout — they kept me updated every step of the way. Highly professional, reliable, and hassle-free. I would definitely recommend their service to anyone looking for fast and trustworthy document attestation!","timeAgo":"3 weeks ago","profilePhotoUrl":"https://lh3.googleusercontent.com/a-/ALV-UjXvYIUqfh20mlH4XNV1GDUEOLRpqlSDy9C5PAwXOANKd14wxoY=s128-c0x00000000-cc-rp-mo"},{"id":"google_review_Benchmark_MOFA_Attestation,_Certificate_attestation_Dubai,_Degree_Attestation_UAE,_Apostille_UK,_US,_India,_Canada,_Australia_4","authorName":"Ganesh Nanjan","rating":5,"text":"I was completely satisfied and continue to be pleasantly surprised that there are still service centres which exist and provide seamless and exceptional client service, like yours. Many thanks to Ms. Sharmai, for her regular updates and efficient execution. Many many thanks.","timeAgo":"a month ago","profilePhotoUrl":"https://lh3.googleusercontent.com/a-/ALV-UjV_9Nl7uNqlvr1scpozxgytinhzUHZ15Mzk1BlnLHD41qaBVS9q=s128-c0x00000000-cc-rp-mo"},{"id":"google_review_Benchmark_MOFA_Attestation,_Certificate_attestation_Dubai,_Degree_Attestation_UAE,_Apostille_UK,_US,_India,_Canada,_Australia_5","authorName":"Akbar Sadath","rating":5,"text":"I had a fantastic experience with Benchmark Certificate Attestation!\nI attested my marriage certificate and my son's birth certificate from India, and the process was smooth and hassle-free.\n\nA special thanks to Miss Swathi, who provided excellent service and guidance at every step. She was always available to answer my queries and ensured everything was handled perfectly. I truly appreciate the team's dedication and professionalism. Highly recommended for anyone looking for reliable attestation services!","timeAgo":"3 months ago","profilePhotoUrl":"https://lh3.googleusercontent.com/a-/ALV-UjXI7JBTpAMTdnOoIvdE-udQqNSc_yCgKu0bFI3s9mmNcfH30WV8=s128-c0x00000000-cc-rp-mo"}]}],"total":841,"categories":["\"study abroad\"","\"work permit\"","\"work visa\"","attestation services","authorized visa center Dubai","business","business formation","business setup","business visa services","certified visa consultant Dubai","company formation","dependent visa","document attestation","document clearance","document clearing","education visa","employment visa","expatriate services","family visa","freezone setup","government approved visa Dubai","immigration assistance","immigration center","immigration expert","immigration lawyers","immigration office","immigration services Al Barsha Dubai","immigration specialist","immigration support","investor visa","legal services","licensed immigration advisor Dubai","mainland company","migration services","offshore company","registered visa agent Dubai","relocation services","residence visa","spouse visa","tourist visa","travel agencies","travel agents","visa agency Satwa Dubai","visa application center","visa center","visa consultants Sheikh Zayed Road Dubai","visa consulting Karama Dubai","visa expert","visa helper","visa lawyers","visa processing center","visa processing office","visa processing services","visa services Bur Dubai","visa services Business Bay Dubai","visa services DIFC Dubai","visa services Deira Dubai","visa services Downtown Dubai","visa services Jumeirah Dubai","visa services Marina Dubai","visa specialist","visa support","visitor visa","استشارات الهجرة دبي","خدمات التأشيرات دب��","خدمات الهجرة دبي"],"processingTime":0,"message":"Loaded 1 of 841 Dubai visa service providers from database in 0 seconds","source":"database","targetKeywordCount":1,"pagination":{"page":1,"limit":1,"total":841,"totalPages":841,"hasMore":true}}